Homework 3: Data Visualization
…
8/13/2020

Data Source: ANES

For the remainder of this course I plan to work with ANES data. The full ANES survey is conducted in person and online before and after the election in Presidential years. It is an essential data source for researchers working on American public opinion and political behavior. Im excited to familiarize myself with this indispensable resource and learn R in the process. For this assignment I am only working with 2016 data, but I plan to download the cumulative data file to analyze trends over the past 5-7 cycles (Clinton onward).

At first, working with these data was difficult. I grew incredibly frustrated attempting to recode variables that did not spring errors, but also did not change into the values I was assigning. It took me a while, but eventually I realized that vectors I assumed were numeric <double> were in fact character strings coded as [space][integer]. To fix this problem I added the trim_ws = TRUE option when loading the data into R.

anes <- read_delim("anes_2016.txt", delim=",", trim_ws = TRUE)
anes <- as_tibble(anes)

Thankfully, taking a look at the tibble confirms that most of the variables are <dbl> not <chr>.

## # A tibble: 4,271 x 979
##    version v160001 v160101 v160101f v160101w v160102 v160102f v160102w v160201
##    <chr>     <dbl>   <dbl>    <dbl>    <dbl>   <dbl>    <dbl>    <dbl>   <dbl>
##  1 ANES20  300001   0.827    0.888        0   0.842    0.927        0     121
##  2 ANES20  300002   1.08     1.16         0   1.01     1.08         0     123
##  3 ANES20  300003   0.388    0.416        0   0.367    0.398        0     121
##  4 ANES20  300004   0.360    0.385        0   0.366    0.418        0     118
##  5 ANES20  300006   0.647    0.693        0   0.646    0.726        0     113
##  6 ANES20  300007   0.706    0.759        0   0.688    0.725        0     104
##  7 ANES20  300008   3.96     4.25         0   4.62     4.79         0     105
##  8 ANES20  300012   0.962    1.03         0   0.943    1.04         0     104
##  9 ANES20  300018   0.976    1.05         0   1.01     1.07         0     124
## 10 ANES20  300020   0.618    0.664        0   0.600    0.638        0     121
## #  with 4,261 more rows, and 970 more variables: v160201f <dbl>,
## #   v160201w <dbl>, v160202 <dbl>, v160202f <dbl>, v160202w <dbl>,
## #   v163001a <dbl>, v163001b <chr>, v163002 <dbl>, v160501 <dbl>,
## #   v160502 <dbl>, v161001 <dbl>, v161002 <dbl>, v161517 <dbl>, v161518 <dbl>,
## #   v161519 <dbl>, v161520 <dbl>, v161521 <dbl>, v161523 <dbl>, v162001 <dbl>,
## #   v164001a <dbl>, v164001b <dbl>, v164001c <dbl>, v164001d <dbl>,
## #   v165001a <dbl>, v165001b <dbl>, v165001c <dbl>, v165001d <dbl>,
## #   v162370 <dbl>, v162371a <dbl>, v162371b <dbl>, v166001 <dbl>,
## #   v166002 <dbl>, v164002 <dbl>, v164002a <dbl>, v164003 <chr>,
…
