Homework 4: Modeling Pipeline
…
In general, I expected to see trust in Washington decline over time but also thought it would shift in response to major political events. Initially I thought I was going to be able to trace trust from the 1960s through 2016, but midway through developing this visualization I was very disappointed to realize that I my data didnt extend through 2016. I worked with the 2016 ANES trust question on my previous homework but didnt realize that it wasnt comparable to the trust question from previous surveys. In 2016 it was given as a 5 point question rather than the 3 point question that ANES had previous used.

The process of making this visualization was challenging. I found the janitor package and tabyl command that I used above after I was already done with this plot, but tabyl would have been quite helpful and now that Ive found it I plan to clean up this code considerably. But the ugly original is worth including here to document my process (read: headaches) and the time I put into it.

prop.table() is not a very good tool because it erases all the metadata attached to original data frame; tabyl resolves that problem and is tidyverse friendly. The data frame that I ended up with after saving my prop.table was not in a functional or useful form whatsoever. It required a new round of tidying and multiple workarounds to solve really annoying problems. But thankfully, now that Ive found tabyl I can get rid of all of this mess.

# create and save prop.table of trust over time
trust_wash <- prop.table(xtabs(~ year + trustWash, anes), 1)
trust_wash <- as_tibble(trust_wash)

# preview new tibble
# notice that year is a character vector not numeric
trust_wash

## # A tibble: 96 x 3
##    year  trustWash        n
##    <chr> <chr>        <dbl>
##  1 1958  Never     0       
##  2 1964  Never     0.000702
##  3 1966  Never     0.0260  
##  4 1968  Never     0.00153 
##  5 1970  Never     0.00272 
##  6 1972  Never     0.00582 
##  7 1974  Never     0.0131  
##  8 1976  Never     0.0125  
##  9 1978  Never     0.0415  
## 10 1980  Never     0.0406  
## #  with 86 more rows
…
